Matrix population model projections • TACAR
…
A little test.

# Test with smaller subset.
df <- scenario_ffr_res |> 
  dplyr::filter(COUNTRY == "French Guiana")
# Unique groups
df |>
dplyr::group_by(COUNTRY, BASIN_NAME, reach_id_point,
         model_name, modelkey, modelid, typef) |> 
  dplyr::summarise(acount = dplyr::n()) |> 
  dplyr::arrange(dplyr::desc(acount))
#> `summarise()` has grouped output by 'COUNTRY', 'BASIN_NAME', 'reach_id_point',
#> 'model_name', 'modelkey', 'modelid'. You can override using the `.groups`
#> argument.
#> # A tibble: 9,894 × 8
#> # Groups:   COUNTRY, BASIN_NAME, reach_id_point, model_name, modelkey, modelid
#> #   [9,894]
#>    COUNTRY    BASIN_NAME reach_id_point model_name modelkey modelid typef acount
#>    <chr>      <chr>      <chr>          <chr>         <dbl> <chr>   <fct>  <int>
#>  1 French Gu… Coastal N… 60111852_1     modelkey_…      112 poun_f… fema…      1
#>  2 French Gu… Coastal N… 60111852_1     modelkey_…       62 poun_f… fema…      1
#>  3 French Gu… Coastal N… 60111852_1     modelkey_…      107 poun_f… fema…      1
#>  4 French Gu… Coastal N… 60111852_2     modelkey_…      112 poun_f… fema…      1
#>  5 French Gu… Coastal N… 60111852_2     modelkey_…       62 poun_f… fema…      1
#>  6 French Gu… Coastal N… 60111852_2     modelkey_…      107 poun_f… fema…      1
#>  7 French Gu… Coastal N… 60111852_3     modelkey_…      112 poun_f… fema…      1
#>  8 French Gu… Coastal N… 60111852_3     modelkey_…       62 poun_f… fema…      1
#>  9 French Gu… Coastal N… 60111852_3     modelkey_…      107 poun_f… fema…      1
#> 10 French Gu… Coastal N… 60111852_4     modelkey_…      112 poun_f… fema…      1
#> # ℹ 9,884 more rows
…
