Matrix population model projections • TACAR
…
# Unique groups
df |>
dplyr::group_by(COUNTRY, BASIN_NAME, subbasin, 
                reach_id_point,
         model_name, modelkey, modelid, typef) |> 
  dplyr::summarise(acount = dplyr::n()) |> 
  dplyr::arrange(dplyr::desc(acount))
#> `summarise()` has grouped output by 'COUNTRY', 'BASIN_NAME', 'subbasin',
#> 'reach_id_point', 'model_name', 'modelkey', 'modelid'. You can override using
#> the `.groups` argument.
#> # A tibble: 9,894 × 9
#> # Groups:   COUNTRY, BASIN_NAME, subbasin, reach_id_point, model_name,
#> #   modelkey, modelid [9,894]
#>    COUNTRY  BASIN_NAME subbasin reach_id_point model_name modelkey modelid typef
#>    <chr>    <chr>      <chr>    <chr>          <chr>         <dbl> <chr>   <fct>
#>  1 French … Coastal N… Coastal… 60154000_1     modelkey_…      112 poun_f… fema…
#>  2 French … Coastal N… Coastal… 60154000_1     modelkey_…       62 poun_f… fema…
#>  3 French … Coastal N… Coastal… 60154000_1     modelkey_…      107 poun_f… fema…
#>  4 French … Coastal N… Coastal… 60154000_2     modelkey_…      112 poun_f… fema…
#>  5 French … Coastal N… Coastal… 60154000_2     modelkey_…       62 poun_f… fema…
#>  6 French … Coastal N… Coastal… 60154000_2     modelkey_…      107 poun_f… fema…
#>  7 French … Coastal N… Coastal… 60154920_1     modelkey_…      107 poun_f… fema…
#>  8 French … Coastal N… Coastal… 60154920_1     modelkey_…      112 poun_f… fema…
#>  9 French … Coastal N… Coastal… 60154920_1     modelkey_…      157 poun_f… fema…
#> 10 French … Coastal N… Coastal… 60154920_2     modelkey_…      112 poun_f… fema…
#> # ℹ 9,884 more rows
#> # ℹ 1 more variable: acount <int>
…
